{
  "key": "${addon.key}",
  "baseUrl": "${addon.base-url}",
  "authentication": {
    "type": "jwt"
  },
  "lifecycle": {
    "installed": "/installed",
    "uninstalled": "/uninstalled",
    "enabled": "/enabled",
    "disabled": "/disabled"
  }
}